com\qa\Pages\DarazSellerHomePage.class
com\qa\Pages\AmazonLoginPage.class
com\qa\TestRunner.class
com\qa\Listeners\TestListeners.class
com\qa\BaseTest.class
com\qa\Hook\hook.class
com\qa\Pages\DarazSellerDashboardPage.class
com\qa\Utils\Log.class
com\qa\Utils\TestUtils.class
